<svg width="12" height="7" viewBox="0 0 12 7" fill="black" xmlns="http://www.w3.org/2000/svg">
<line x1="0.353553" y1="0.646447" x2="6.35355" y2="6.64645" stroke="black"/>
<line y1="-0.5" x2="8.48528" y2="-0.5" transform="matrix(-0.707107 0.707107 0.707107 0.707107 12 1)" stroke="black"/>
</svg>
