<svg width="414" height="237" viewBox="0 0 414 237" fill="none" xmlns="http://www.w3.org/2000/svg">
<rect width="414" height="237" fill="url(#paint0_linear)"/>
<defs>
<linearGradient id="paint0_linear" x1="210" y1="237" x2="208.545" y2="-51.5078" gradientUnits="userSpaceOnUse">
<stop/>
<stop offset="1" stop-opacity="0"/>
</linearGradient>
</defs>
</svg>
