<svg width="12" height="16" viewBox="0 0 12 16" fill="none" xmlns="http://www.w3.org/2000/svg">
<path d="M5.375 0.5V10.8516L2.07422 7.55078L1.17578 8.44922L5.55078 12.8242L6 13.2539L6.44922 12.8242L10.8242 8.44922L9.92578 7.55078L6.625 10.8516V0.5H5.375ZM0.375 14.25V15.5H11.625V14.25H0.375Z" fill="white"/>
</svg>
